…
weather <- 
  read_csv("https://data.giss.nasa.gov/gistemp/tabledata_v4/NH.Ts+dSST.csv", 
           skip = 1, 
           na = "***")

##clean the data

tidyweather <- weather%>%
  select(Year,Jan,Feb,Mar,Apr,May,Jun,Jul,Aug,Sep,Oct,Nov,Dec)%>%
  pivot_longer(cols=2:13,names_to="Month",values_to="delta")

tidyweather

## # A tibble: 1,704 × 3
##     Year Month delta
##    <dbl> <chr> <dbl>
##  1  1880 Jan   -0.35
##  2  1880 Feb   -0.51
##  3  1880 Mar   -0.23
##  4  1880 Apr   -0.3 
##  5  1880 May   -0.06
##  6  1880 Jun   -0.16
##  7  1880 Jul   -0.18
##  8  1880 Aug   -0.26
##  9  1880 Sep   -0.23
## 10  1880 Oct   -0.32
## # … with 1,694 more rows
…
It is sometimes useful to group data into different time periods to study historical data.

comparison <- tidyweather %>% 
  filter(Year>= 1881) %>%
  mutate(interval = case_when(
    Year %in% c(1881:1920) ~ "1881-1920",
    Year %in% c(1921:1950) ~ "1921-1950",
    Year %in% c(1951:1980) ~ "1951-1980",
    Year %in% c(1981:2010) ~ "1981-2010",
    TRUE ~ "2011-present"
  ))
print(comparison)

## # A tibble: 1,692 × 7
##     Year Month delta date       month  year interval 
##    <dbl> <chr> <dbl> <date>     <dbl> <dbl> <chr>    
##  1  1881 Jan   -0.3  1881-01-01     1  1881 1881-1920
##  2  1881 Feb   -0.21 1881-02-01     2  1881 1881-1920
##  3  1881 Mar   -0.03 1881-03-01     3  1881 1881-1920
##  4  1881 Apr    0.01 1881-04-01     4  1881 1881-1920
##  5  1881 May    0.04 1881-05-01     5  1881 1881-1920
##  6  1881 Jun   -0.32 1881-06-01     6  1881 1881-1920
##  7  1881 Jul    0.08 1881-07-01     7  1881 1881-1920
##  8  1881 Aug   -0.04 1881-08-01     8  1881 1881-1920
##  9  1881 Sep   -0.26 1881-09-01     9  1881 1881-1920
## 10  1881 Oct   -0.43 1881-10-01    10  1881 1881-1920
## # … with 1,682 more rows
…
